[start]
20180109	1100	20300101	1100	50700	999999	0	0	0	1	0	0	0	0	10000	0	0	0	0	0	0	0	0	0	
20170101	0	20300101	0	80200	999999	0	0	2	3	0	30	0	0	0	0	7500	0	2000	0	500	0	0	0		0	30	0	0	0	0	7500	0	2000	0	500	0	0	0		0	30	0	0	0	0	7500	0	2000	0	500	0	0	0	
20170101	0	20300101	0	80200	999999	0	0	3	3	0	75	0	0	0	0	7500	0	2000	0	500	0	0	0		0	75	0	0	0	0	7500	0	2000	0	500	0	0	0		0	75	0	0	0	0	7500	0	2000	0	500	0	0	0	
20200807	1100	20300101	1100	90700	999999	0	0	1	4	-1	0	0	0	0	0	0	0	0	0	0	0	0	0		-1	0	0	0	0	0	0	0	0	0	0	0	0	0		-1	0	0	0	0	0	0	0	0	0	0	0	0	0		522	0	0	0	0	0	0	0	0	0	10000	0	0	0	Get an Uber Rare Cat!! 100% Uber drop Rate in the PLATINUM CAPSULES!
20201004	000	20201012	1100	90900	999999	0	0	0	2	-1	0	0	0	0	0	0	0	0	0	0	0	0	0		5	0	0	2	500	0	7000	0	2000	0	500	0	0	0	★ Limited Capsules ★ Pick up extra Catseyes in this special Capsule set!
20201005	1100	20201009	1100	90900	999999	0	0	1	1	527	150	0	0	0	0	7000	0	2500	0	500	1	0	0	New Heroes appear to celebrate 6 Years! ★ Tap banner for info!
20201007	1100	20201009	1100	90900	999999	0	0	1	2	-1	0	0	0	0	0	0	0	0	0	0	0	0	0		427	150	0	0	0	0	6970	0	2500	0	500	1	30	0	Slay your foes with the mighty Vajiras! ★ Tap banner for info!
20201009	1100	20201012	1100	90900	999999	0	0	1	2	-1	0	0	0	0	0	0	0	0	0	0	0	0	0		523	150	0	4	0	0	7000	0	2500	0	500	0	0	0	Defend your Cats with the Wave Busters! ★ With Increasing Capsules!
20201009	1100	20300101	1100	90900	999999	0	0	1	4	-1	0	0	0	0	0	0	0	0	0	0	0	0	0		-1	0	0	0	0	0	0	0	0	0	0	0	0	0		-1	0	0	0	0	0	0	0	0	0	0	0	0	0		525	0	0	0	0	0	0	0	0	0	10000	0	0	0	Get an Uber Rare Cat!! 100% Uber drop Rate in the PLATINUM CAPSULES!
20201012	1100	20201026	2359	90900	999999	0	0	4	1	13	0	0	0	2700	0	2300	0	1100	0	2500	1	1400	1	Use Bikkuriman Choco to draw limited capsules thru 10/26!	Draw 	 more times from Event Capsules to earn a guaranteed Limited Unit!
20201012	1100	20201026	1100	90900	999999	0	0	1	1	537	150	0	6616	0	0	6970	0	2500	0	500	0	30	0	Devils vs Angels! Bikkuriman capsules are here! ★ Tap banner for info!
20201012	1100	20201014	1100	90900	999999	0	0	1	2	-1	0	0	0	0	0	0	0	0	0	0	0	0	0		519	150	0	6616	0	0	6970	0	2500	0	500	0	30	0	Papaluga joins the uncanny Nekolugas! ★ Tap banner for info!
20201014	1100	20201016	1100	90900	999999	0	0	1	2	-1	0	0	0	0	0	0	0	0	0	0	0	0	0		435	150	0	6616	0	0	6970	0	2500	0	500	0	30	0	Ancient dragons of unmatched might! ★ Tap banner for info!
20201016	1100	20201102	000	90900	999999	0	0	0	4	-1	0	0	0	0	0	0	0	0	0	0	0	0	0		-1	0	0	0	0	0	0	0	0	0	0	0	0	0		-1	0	0	0	0	0	0	0	0	0	0	0	0	0		52	0	300	0	0	0	5100	0	3500	0	1400	0	0	0	【Limited Event】 Special chance for XP and Catamins! ★ On thru 11/1!
20201016	1100	20201019	1100	90900	999999	0	0	1	1	521	150	0	6616	0	0	6500	0	2600	0	900	0	0	0	All the Ubers are gathered for EPICFEST, with higher drop rates!
20201016	1100	20201026	1100	90900	999999	0	0	1	2	-1	0	0	0	0	0	0	0	0	0	0	0	0	0		537	150	0	6616	0	0	6970	0	2500	0	500	0	30	0	Devils vs Angels! Bikkuriman capsules are here! ★ Tap banner for info!
20201019	1100	20201021	1100	90900	999999	0	0	1	2	-1	0	0	0	0	0	0	0	0	0	0	0	0	0		507	150	0	6616	0	0	6970	0	2500	0	500	0	30	0	A Legend now fights alongside the spooky cuties! ★ Tap banner for info!
20201019	1100	20201026	1100	90900	999999	0	0	1	1	537	150	0	6616	0	0	6970	0	2500	0	500	0	30	0	Devils vs Angels! Bikkuriman capsules are here! ★ Tap banner for info!
20201021	1100	20201023	1100	90900	999999	0	0	1	2	-1	0	0	0	0	0	0	0	0	0	0	0	0	0		446	150	0	6616	0	0	6970	0	2500	0	500	0	30	0	Ultimate Cat artillery, with a top-secret Legend?! ★ Tap banner for info!
20201023	1100	20201026	1100	90900	999999	0	0	1	2	-1	0	0	0	0	0	0	0	0	0	0	0	0	0		488	150	0	6616	0	0	6970	0	2500	0	500	1	30	0	For Justice and Cats! The Dark Heroes, with 11-draw guaranteed Uber!
20201023	1100	20201026	1100	90900	999999	0	0	1	1	537	150	0	6616	0	0	6970	0	2500	0	500	1	30	0	Last chance for Devils vs Angels! Bikkuriman! ★ 11-Draw Guarantee!
[end]
