[start]
20160101	0	20300101	0	50700	999999	0	0	1	1	0	150	0	0	0	0	7500	0	2000	0	500	0	0	0	Some Cats only appear here! All Cats here are Rare or above.
20180109	1100	20300101	1100	50700	999999	0	0	0	1	0	0	0	0	10000	0	0	0	0	0	0	0	0	0	
20170101	0	20300101	0	80200	999999	0	0	2	3	0	30	0	0	0	0	7500	0	2000	0	500	0	0	0		0	30	0	0	0	0	7500	0	2000	0	500	0	0	0		0	30	0	0	0	0	7500	0	2000	0	500	0	0	0	
20170101	0	20300101	0	80200	999999	0	0	3	3	0	75	0	0	0	0	7500	0	2000	0	500	0	0	0		0	75	0	0	0	0	7500	0	2000	0	500	0	0	0		0	75	0	0	0	0	7500	0	2000	0	500	0	0	0	
20200807	1100	20300101	1100	90700	999999	0	0	1	4	-1	0	0	0	0	0	0	0	0	0	0	0	0	0		-1	0	0	0	0	0	0	0	0	0	0	0	0	0		-1	0	0	0	0	0	0	0	0	0	0	0	0	0		522	0	0	0	0	0	0	0	0	0	10000	0	0	0	Get an Uber Rare Cat!! 100% Uber drop Rate in the PLATINUM CAPSULES!
20200816	1100	20200902	000	90700	999999	0	0	0	4	-1	0	0	0	0	0	0	0	0	0	0	0	0	0		-1	0	0	0	0	0	0	0	0	0	0	0	0	0		-1	0	0	0	0	0	0	0	0	0	0	0	0	0		48	0	300	0	0	0	5100	0	3500	0	1400	0	0	0	【Limited Event】 Special chance for XP and Catamins! ★ On thru 9/1!
20200824	1100	20200828	1100	90800	999999	0	0	0	3	-1	0	0	0	0	0	0	0	0	0	0	0	0	0		-1	0	0	0	0	0	0	0	0	0	0	0	0	0		3	0	300	0	400	0	2000	0	7000	0	600	0	0	0	Limited Capsules ★ Collect Catfruit by drawing from this set!
20200824	1100	20200901	0	90800	999999	0	0	0	2	-1	0	0	0	0	0	0	0	0	0	0	0	0	0		49	0	0	0	0	0	7400	0	2100	0	500	0	0	0	【Limited】 Collect Li'l Cats only during this event!★ Thru August 31st!
20200824	1100	20200831	1100	90800	999999	0	0	1	1	534	150	0	3992	0	0	7000	0	2500	0	500	0	0	0	New heroes appear for summer fun! ★ Tap banner for info!
20200824	1100	20200826	1100	90800	999999	0	0	1	2	-1	0	0	0	0	0	0	0	0	0	0	0	0	0		487	150	0	3992	0	0	6970	0	2500	0	500	0	30	0	Sharpshooter Saki is here to defend justice! ★ Tap banner for info!
20200826	1100	20200828	1100	90800	999999	0	0	1	2	-1	0	0	0	0	0	0	0	0	0	0	0	0	0		424	150	0	3992	0	0	6970	0	2500	0	500	0	30	0	A wacky variety set of mighty Uber Cats! ★ Tap banner for info!
20200828	1100	20200831	1100	90800	999999	0	0	1	2	-1	0	0	0	0	0	0	0	0	0	0	0	0	0		475	150	0	3992	0	0	6970	0	2500	0	500	1	30	0	Heroes of Japanese fantasy with 2 battle modes! ★ Tap banner for info!
20200828	1100	20200831	1100	90800	999999	0	0	0	3	-1	0	0	0	0	0	0	0	0	0	0	0	0	0		-1	0	0	0	0	0	0	0	0	0	0	0	0	0		5	0	0	2	500	0	7000	0	2000	0	500	0	0	0	★ Limited Capsules ★ Pick up extra Catseyes in this special Capsule set!
20200828	1100	20200831	1100	90800	999999	0	0	1	1	534	150	0	3992	0	0	7000	0	2500	0	500	1	0	0	New heroes appear for summer fun, with 11-Draw Uber Guarantee!
20200831	1100	20200914	1100	90800	999999	0	0	1	1	535	150	0	0	0	0	7000	0	2500	0	500	0	0	0	Limited Hatsune Miku collab with NEW heroes! Tap banner for info!
20200831	1100	20200902	1100	90800	999999	0	0	1	2	-1	0	0	0	0	0	0	0	0	0	0	0	0	0		497	150	0	0	0	0	6970	0	2500	0	500	0	30	0	Hades of the Underworld lends his strength! ★ Tap banner for info!
20200902	1100	20200904	1100	90800	999999	0	0	1	2	-1	0	0	0	0	0	0	0	0	0	0	0	0	0		448	150	0	0	0	0	6970	0	2500	0	500	0	30	0	★ Elemental Pixies ★ Cosmic powers brought to life, with a mystery elemental!
20200904	1100	20200907	1100	90800	999999	0	0	1	1	520	150	0	0	0	0	6500	0	2600	0	900	0	0	0	Embrace darkness with Kasli the Scourge! Plus higher Uber drop rates!
20200904	1100	20200914	1100	90800	999999	0	0	1	2	-1	0	0	0	0	0	0	0	0	0	0	0	0	0		535	150	0	0	0	0	7000	0	2500	0	500	0	0	0	Limited Hatsune Miku collab with NEW heroes! Tap banner for info!
20200907	1100	20200914	1100	90800	999999	0	0	1	1	535	150	0	0	0	0	7000	0	2500	0	500	0	0	0	Limited Hatsune Miku collab with NEW heroes! Tap banner for info!
20200907	1100	20200909	1100	90800	999999	0	0	1	2	-1	0	0	0	0	0	0	0	0	0	0	0	0	0		427	150	0	0	0	0	6970	0	2500	0	500	0	30	0	Slay your foes with the mighty Vajiras! ★ Tap banner for info!
20200909	1100	20200911	1100	90800	999999	0	0	1	2	-1	0	0	0	0	0	0	0	0	0	0	0	0	0		517	150	0	0	0	0	6970	0	2500	0	500	0	30	0	Papaluga joins the uncanny Nekolugas! ★ Tap banner for info!
20200911	1100	20200914	1100	90800	999999	0	0	1	1	535	150	0	0	0	0	7000	0	2500	0	500	1	0	0	Hatsune Miku collab capsules, with 11-Draw Uber Guarantee!
20200911	1100	20200914	1100	90800	999999	0	0	1	2	-1	0	0	0	0	0	0	0	0	0	0	0	0	0		433	150	0	0	0	0	6970	0	2500	0	500	1	30	0	Ancient dragons of unmatched might! ★ Tap banner for info!
[end]
