[start]
20180109	1100	20300101	1100	50700	999999	0	0	0	1	0	0	0	0	10000	0	0	0	0	0	0	0	0	0	
20170101	0	20300101	0	80200	999999	0	0	2	3	0	30	0	0	0	0	7500	0	2000	0	500	0	0	0		0	30	0	0	0	0	7500	0	2000	0	500	0	0	0		0	30	0	0	0	0	7500	0	2000	0	500	0	0	0	
20170101	0	20300101	0	80200	999999	0	0	3	3	0	75	0	0	0	0	7500	0	2000	0	500	0	0	0		0	75	0	0	0	0	7500	0	2000	0	500	0	0	0		0	75	0	0	0	0	7500	0	2000	0	500	0	0	0	
20201009	1100	20300101	1100	90900	999999	0	0	1	4	-1	0	0	0	0	0	0	0	0	0	0	0	0	0		-1	0	0	0	0	0	0	0	0	0	0	0	0	0		-1	0	0	0	0	0	0	0	0	0	0	0	0	0		525	0	0	0	0	0	0	0	0	0	10000	0	0	0	울트라 슈퍼 레어 캐릭터를 반드시 뽑을 수 있는 ★플래티넘 뽑기★
20201016	1100	20201102	0	90900	999999	0	0	0	4	-1	0	0	0	0	0	0	0	0	0	0	0	0	0		-1	0	0	0	0	0	0	0	0	0	0	0	0	0		-1	0	0	0	0	0	0	0	0	0	0	0	0	0		52	0	300	0	0	0	5100	0	3500	0	1400	0	0	0	【기간한정】고양이 드링크와 XP를 GET할 수 있는 특별 뽑기!★ 11월 1일까지!
20201026	1100	20201104	1100	91000	999999	0	0	1	1	545	150	0	0	0	0	7000	0	2500	0	500	0	0	0	신 캐릭터 등장! 할로윈 한정 캐릭터 GET!!★자세한 내용은 배너를 클릭!
20201028	1100	20201030	1100	91000	999999	0	0	1	2	-1	0	0	0	0	0	0	0	0	0	0	0	0	0		424	150	0	0	0	0	6970	0	2500	0	500	0	30	0	세계 최강 전력의 냥코 군단!★자세한 내용은 배너를 클릭!
20201030	1100	20201104	1100	91000	999999	0	0	1	1	545	150	0	0	0	0	7000	0	2500	0	500	1	0	0	신 캐릭터 등장! 할로윈 한정 캐릭터 GET!!★자세한 내용은 배너를 클릭!
20201030	1100	20201101	1100	91000	999999	0	0	1	2	-1	0	0	0	0	0	0	0	0	0	0	0	0	0		427	150	0	0	0	0	6970	0	2500	0	500	1	30	0	★검은 적에 강한 멋진 환수들! 자세한 내용은 배너를 클릭!★
20201101	1100	20201104	1100	91000	999999	0	0	1	2	-1	0	0	0	0	0	0	0	0	0	0	0	0	0		497	150	0	0	0	0	6970	0	2500	0	500	1	30	0	냥코 월드의 위대한 신들이 이곳에 집결!★자세한 내용은 배너를 클릭!
20201104	1100	20201118	1100	91000	999999	0	0	1	2	-1	0	0	0	0	0	0	0	0	0	0	0	0	0		546	150	0	0	0	0	7000	0	2500	0	500	0	0	0	【기간한정】 『크래시 피버』 콜라보 뽑기 등장!★자세한 내용은 배너를 클릭!
20201104	1100	20201106	1100	91000	999999	0	0	1	3	-1	0	0	0	0	0	0	0	0	0	0	0	0	0		-1	0	0	0	0	0	0	0	0	0	0	0	0	0		475	150	0	0	0	0	6970	0	2500	0	500	0	30	0	냥코 월드 최대급 진화! 초고대 전설의 용사들!★자세한 내용은 배너를 클릭!
20201106	1100	20201109	1100	91000	999999	0	0	1	1	520	150	0	0	0	0	6500	0	2600	0	900	0	0	0	울트라 슈퍼 레어 캐릭터가 총집합!★출현율 대폭 UP! 울트라 고양이 축제 개최 중!
20201109	1100	20201111	1100	91000	999999	0	0	1	3	-1	0	0	0	0	0	0	0	0	0	0	0	0	0		-1	0	0	0	0	0	0	0	0	0	0	0	0	0		517	150	0	0	0	0	6970	0	2500	0	500	0	30	0	신 캐릭터 ★오이루가★ 참전! 수수께끼 투성이의 생명체들! 자세한 내용은 배너를 클릭!
20201109	1100	20201116	1100	91000	999999	0	0	0	2	-1	0	0	0	0	0	0	0	0	0	0	0	0	0		5	0	0	2	500	0	7000	0	2000	0	500	0	0	0	【기간한정】 높은 확률로 캣츠아이를 획득할 수 있는 특별 뽑기!
20201111	1100	20201113	1100	91000	999999	0	0	1	3	-1	0	0	0	0	0	0	0	0	0	0	0	0	0		-1	0	0	0	0	0	0	0	0	0	0	0	0	0		433	150	0	0	0	0	6970	0	2500	0	500	0	30	0	압도적인 존재감을 내뿜는 강력한 드래곤들!★자세한 내용은 배너를 클릭!
20201113	1100	20201116	1100	91000	999999	0	0	1	1	538	150	0	0	0	0	6970	0	2500	0	500	1	30	0	신 캐릭터 '돌의 정령 롤링스톤' 참전! 개성적이고 유쾌한 정령들!★자세한 내용은 배너를 클릭!
20201113	1100	20201118	1100	91000	999999	0	0	1	2	-1	0	0	0	0	0	0	0	0	0	0	0	0	0		546	150	0	0	0	0	7000	0	2500	0	500	1	0	0	【기간한정】 『크래시 피버』 콜라보 뽑기 등장!★11연속 뽑기 울슈레 확정!!
20201113	1100	20300101	1100	91000	999999	0	0	1	4	-1	0	0	0	0	0	0	0	0	0	0	0	0	0		-1	0	0	0	0	0	0	0	0	0	0	0	0	0		-1	0	0	0	0	0	0	0	0	0	0	0	0	0		543	0	0	0	0	0	0	0	0	0	10000	0	0	0	울트라 슈퍼 레어 캐릭터 100% 획득 가능! ★플래티넘 뽑기★
20201116	1100	20201118	1100	91000	999999	0	0	1	3	-1	0	0	0	0	0	0	0	0	0	0	0	0	0		-1	0	0	0	0	0	0	0	0	0	0	0	0	0		506	150	0	0	0	0	6970	0	2500	0	500	1	30	0	 이세계에서 소환된 유쾌한 미소녀들! 시크릿 미소녀 참전!★자세한 내용은 배너를 클릭!
20201116	1100	20201202	0	91000	999999	0	0	0	4	-1	0	0	0	0	0	0	0	0	0	0	0	0	0		-1	0	0	0	0	0	0	0	0	0	0	0	0	0		-1	0	0	0	0	0	0	0	0	0	0	0	0	0		53	0	300	0	0	0	5100	0	3500	0	1400	0	0	0	 【기간한정】 고양이 드링크와 XP를 GET할 수 있는 특별 뽑기!★ 12월 1일까지!
20201116	1100	20201123	1100	91000	999999	0	0	0	2	-1	0	0	0	0	0	0	0	0	0	0	0	0	0		3	0	300	0	400	0	2000	0	7000	0	600	0	0	0	【기간한정】 개다래를 획득할 수 있는 특별 뽑기!
[end]
