[start]
20180109	1100	20300101	1100	50700	999999	0	0	0	1	0	0	0	0	10000	0	0	0	0	0	0	0	0	0	
20170101	0	20300101	0	80200	999999	0	0	2	3	0	30	0	0	0	0	7500	0	2000	0	500	0	0	0		0	30	0	0	0	0	7500	0	2000	0	500	0	0	0		0	30	0	0	0	0	7500	0	2000	0	500	0	0	0	
20170101	0	20300101	0	80200	999999	0	0	3	3	0	75	0	0	0	0	7500	0	2000	0	500	0	0	0		0	75	0	0	0	0	7500	0	2000	0	500	0	0	0		0	75	0	0	0	0	7500	0	2000	0	500	0	0	0	
20201009	1100	20300101	1100	90900	999999	0	0	1	4	-1	0	0	0	0	0	0	0	0	0	0	0	0	0		-1	0	0	0	0	0	0	0	0	0	0	0	0	0		-1	0	0	0	0	0	0	0	0	0	0	0	0	0		525	0	0	0	0	0	0	0	0	0	10000	0	0	0	울트라 슈퍼 레어 캐릭터를 반드시 뽑을 수 있는 ★플래티넘 뽑기★
20201113	1100	20300101	1100	91000	999999	0	0	1	4	-1	0	0	0	0	0	0	0	0	0	0	0	0	0		-1	0	0	0	0	0	0	0	0	0	0	0	0	0		-1	0	0	0	0	0	0	0	0	0	0	0	0	0		543	0	0	0	0	0	0	0	0	0	10000	0	0	0	울트라 슈퍼 레어 캐릭터 100% 획득 가능! ★플래티넘 뽑기★
20201207	1100	20201214	1100	100000	999999	0	0	0	2	-1	0	0	0	0	0	0	0	0	0	0	0	0	0		3	0	300	0	400	0	2000	0	7000	0	600	0	0	0	☆기간 한정★개다래를 획득할 수 있는 특별 뽑기!☆
20201207	1100	20201209	1100	100000	999999	0	0	1	2	-1	0	0	0	0	0	0	0	0	0	0	0	0	0		424	150	0	0	0	0	6970	0	2500	0	500	0	30	0	세계 최강 전력의 냥코 군단!★자세한 내용은 배너를 클릭!
20201209	1100	20201211	1100	100000	999999	0	0	1	2	-1	0	0	0	0	0	0	0	0	0	0	0	0	0		427	150	0	0	0	0	6970	0	2500	0	500	0	30	0	★검은 적에 강한 멋진 환수들! 자세한 내용은 배너를 클릭!★
20201211	1100	20201214	1100	100000	999999	0	0	1	2	-1	0	0	0	0	0	0	0	0	0	0	0	0	0		497	150	0	0	0	0	6970	0	2500	0	500	0	30	0	냥코 월드의 위대한 신들이 이곳에 집결!★자세한 내용은 배너를 클릭!
20201214	1100	20201216	1100	100000	999999	0	0	1	2	-1	0	0	0	0	0	0	0	0	0	0	0	0	0		475	150	0	0	0	0	6970	0	2500	0	500	0	30	0	냥코 월드 최대급 진화! 초고대 전설의 용사들!★자세한 내용은 배너를 클릭!
20201216	1100	20210102	0	100000	999999	0	0	0	4	-1	0	0	0	0	0	0	0	0	0	0	0	0	0		-1	0	0	0	0	0	0	0	0	0	0	0	0	0		-1	0	0	0	0	0	0	0	0	0	0	0	0	0		55	0	300	0	0	0	5100	0	3500	0	1400	0	0	0	【기간한정】고양이 드링크와 XP를 GET할 수 있는 특별 뽑기!★ 1월 1일 까지!
20201216	1100	20201218	1100	100000	999999	0	0	1	2	-1	0	0	0	0	0	0	0	0	0	0	0	0	0		433	150	0	0	0	0	6970	0	2500	0	500	0	30	0	압도적인 존재감을 내뿜는 강력한 드래곤들!★자세한 내용은 배너를 클릭!
20201218	1100	20201221	1100	100000	999999	0	0	1	1	542	150	0	0	0	0	6500	0	2600	0	900	0	0	0	울트라 슈퍼 레어 캐릭터가 총집합!★확률도 초UP된 하이퍼 고양이 축제 개최 중!
[end]
