[start]
20180109	1100	20300101	1100	50700	999999	0	0	0	1	0	0	0	0	10000	0	0	0	0	0	0	0	0	0	
20170101	0	20300101	0	80200	999999	0	0	2	3	0	30	0	0	0	0	7500	0	2000	0	500	0	0	0		0	30	0	0	0	0	7500	0	2000	0	500	0	0	0		0	30	0	0	0	0	7500	0	2000	0	500	0	0	0	
20170101	0	20300101	0	80200	999999	0	0	3	3	0	75	0	0	0	0	7500	0	2000	0	500	0	0	0		0	75	0	0	0	0	7500	0	2000	0	500	0	0	0		0	75	0	0	0	0	7500	0	2000	0	500	0	0	0	
20201009	1100	20300101	1100	90900	999999	0	0	1	4	-1	0	0	0	0	0	0	0	0	0	0	0	0	0		-1	0	0	0	0	0	0	0	0	0	0	0	0	0		-1	0	0	0	0	0	0	0	0	0	0	0	0	0		525	0	0	0	0	0	0	0	0	0	10000	0	0	0	울트라 슈퍼 레어 캐릭터를 반드시 뽑을 수 있는 ★플래티넘 뽑기★
20201113	1100	20300101	1100	91000	999999	0	0	1	4	-1	0	0	0	0	0	0	0	0	0	0	0	0	0		-1	0	0	0	0	0	0	0	0	0	0	0	0	0		-1	0	0	0	0	0	0	0	0	0	0	0	0	0		543	0	0	0	0	0	0	0	0	0	10000	0	0	0	울트라 슈퍼 레어 캐릭터 100% 획득 가능! ★플래티넘 뽑기★
20210212	000	20300101	1100	100200	999999	0	0	1	4	-1	0	0	0	0	0	0	0	0	0	0	0	0	0		-1	0	0	0	0	0	0	0	0	0	0	0	0	0		-1	0	0	0	0	0	0	0	0	0	0	0	0	0		556	0	0	0	0	0	0	0	0	0	10000	0	0	0	울트라 슈퍼 레어 캐릭터 100% 획득 가능! ★플래티넘 뽑기★
20210216	1100	20210302	0	100200	999999	0	0	0	4	-1	0	0	0	0	0	0	0	0	0	0	0	0	0		-1	0	0	0	0	0	0	0	0	0	0	0	0	0		-1	0	0	0	0	0	0	0	0	0	0	0	0	0		59	0	300	0	0	0	5100	0	3500	0	1400	0	0	0	【기간한정】고양이 드링크와 XP를 GET할 수 있는 특별 뽑기!★ 3월 1일까지!
20210215	1100	20210301	1100	100200	999999	0	0	1	1	568	150	0	0	0	0	7000	0	2500	0	500	0	0	0	발렌타인 기간한정 스위트한 뽑기 신등장!!★자세한 내용은 배너를 클릭!
20210224	1100	20210226	1100	100200	999999	0	0	1	2	-1	0	0	0	0	0	0	0	0	0	0	0	0	0		506	150	0	0	0	0	6970	0	2500	0	500	0	30	0	이세계에서 소환된 유쾌한 미소녀들! 시크릿 미소녀 참전!★자세한 내용은 배너를 클릭!
20210226	1100	20210301	1100	100200	999999	0	0	1	1	568	150	0	0	0	0	7000	0	2500	0	500	1	0	0	발렌타인 기간한정 스위트한 뽑기 신등장!!★자세한 내용은 배너를 클릭!
20210226	1100	20210301	1100	100200	999999	0	0	1	2	-1	0	0	0	0	0	0	0	0	0	0	0	0	0		475	150	0	0	0	0	6970	0	2500	0	500	1	30	0	냥코 월드 최대급 진화! 초고대 전설의 용사들!★자세한 내용은 배너를 클릭!
20210301	1100	20210315	1100	100201	999999	0	0	1	1	516	150	0	0	0	0	7000	0	2500	0	500	0	0	0	새로운 울슈레 5개! 사도가 참전한 콜라보 뽑기 2nd 신등장!!★자세한 내용은 배너를 탭!
20210301	1100	20210315	1100	100201	999999	0	0	1	2	-1	0	0	0	0	0	0	0	0	0	0	0	0	0		570	150	0	0	0	0	7000	0	2500	0	500	0	0	0	에반게리온 메인 콜라보 뽑기 복각 개최!★자세한 내용은 배너를 탭!
20210301	1100	20210303	1100	100201	999999	0	0	1	3	-1	0	0	0	0	0	0	0	0	0	0	0	0	0		-1	0	0	0	0	0	0	0	0	0	0	0	0	0		487	150	0	0	0	0	6970	0	2500	0	500	0	30	0	정의와 어둠의 힘을 둘 다 갖춘 냥코 군단의 구세주들!★자세한 내용은 배너를 탭!
20210303	1100	20210305	1100	100201	999999	0	0	1	3	-1	0	0	0	0	0	0	0	0	0	0	0	0	0		-1	0	0	0	0	0	0	0	0	0	0	0	0	0		445	150	0	0	0	0	6970	0	2500	0	500	0	30	0	★냥코 군단의 초비밀 병기! 시크릿 참전!?★자세한 내용은 배너를 클릭!!★
20210305	1100	20210308	1100	100201	999999	0	0	1	1	555	150	0	0	0	0	6500	0	2600	0	900	0	0	0	신 캐릭터 '요수 가루' 참전!★울슈레 출현율 초 UP! 울트라 고양이 축제 개최 중!
20210305	1100	20210315	1100	100201	999999	0	0	1	2	-1	0	0	0	0	0	0	0	0	0	0	0	0	0		516	150	0	0	0	0	7000	0	2500	0	500	0	0	0	새로운 울슈레 5개! 사도가 참전한 콜라보 뽑기 2nd 신등장!!★자세한 내용은 배너를 탭!
20210305	1100	20210315	1100	100201	999999	0	0	1	3	-1	0	0	0	0	0	0	0	0	0	0	0	0	0		-1	0	0	0	0	0	0	0	0	0	0	0	0	0		570	150	0	0	0	0	7000	0	2500	0	500	0	0	0	에반게리온 메인 콜라보 뽑기 복각 개최!★자세한 내용은 배너를 탭!
20210308	1100	20210315	1100	100201	999999	0	0	1	1	516	150	0	0	0	0	7000	0	2500	0	500	0	0	0	새로운 울슈레 5개! 사도가 참전한 콜라보 뽑기 2nd 신등장!!★자세한 내용은 배너를 탭!
20210308	1100	20210315	1100	100201	999999	0	0	1	2	-1	0	0	0	0	0	0	0	0	0	0	0	0	0		570	150	0	0	0	0	7000	0	2500	0	500	0	0	0	에반게리온 메인 콜라보 뽑기 복각 개최!★자세한 내용은 배너를 탭!
20210308	1100	20210310	1100	100201	999999	0	0	1	3	-1	0	0	0	0	0	0	0	0	0	0	0	0	0		-1	0	0	0	0	0	0	0	0	0	0	0	0	0		430	150	0	0	0	0	6970	0	2500	0	500	0	30	0	♡파워풀&큐트한 소녀들♡자세한 내용은 배너를 클릭♡
20210310	1100	20210312	1100	100201	999999	0	0	1	3	-1	0	0	0	0	0	0	0	0	0	0	0	0	0		-1	0	0	0	0	0	0	0	0	0	0	0	0	0		427	150	0	0	0	0	6970	0	2500	0	500	0	30	0	★검은 적에 강한 멋진 환수들! 자세한 내용은 배너를 클릭!★
20210312	1100	20210315	1100	100201	999999	0	0	1	1	516	150	0	0	0	0	7000	0	2500	0	500	1	0	0	새로운 울슈레 5개! 사도가 참전한 콜라보 뽑기 2nd 신등장!!★자세한 내용은 배너를 탭!
20210312	1100	20210315	1100	100201	999999	0	0	1	2	-1	0	0	0	0	0	0	0	0	0	0	0	0	0		570	150	0	0	0	0	7000	0	2500	0	500	1	0	0	에반게리온 메인 콜라보 뽑기 복각 개최!★자세한 내용은 배너를 탭!
20210312	1100	20210315	1100	100201	999999	0	0	1	3	-1	0	0	0	0	0	0	0	0	0	0	0	0	0		-1	0	0	0	0	0	0	0	0	0	0	0	0	0		424	150	0	0	0	0	6970	0	2500	0	500	1	30	0	세계 최강 전력의 냥코 군단!★자세한 내용은 배너를 클릭!
[end]
