[start]
20180109	1100	20300101	1100	50700	999999	0	0	0	1	0	0	0	0	10000	0	0	0	0	0	0	0	0	0	
20170101	0	20300101	0	80200	999999	0	0	2	3	0	30	0	0	0	0	7500	0	2000	0	500	0	0	0		0	30	0	0	0	0	7500	0	2000	0	500	0	0	0		0	30	0	0	0	0	7500	0	2000	0	500	0	0	0	
20170101	0	20300101	0	80200	999999	0	0	3	3	0	75	0	0	0	0	7500	0	2000	0	500	0	0	0		0	75	0	0	0	0	7500	0	2000	0	500	0	0	0		0	75	0	0	0	0	7500	0	2000	0	500	0	0	0	
20200807	1100	20300101	1100	90700	999999	0	0	1	4	-1	0	0	0	0	0	0	0	0	0	0	0	0	0		-1	0	0	0	0	0	0	0	0	0	0	0	0	0		-1	0	0	0	0	0	0	0	0	0	0	0	0	0		522	0	0	0	0	0	0	0	0	0	10000	0	0	0	必出超激稀有角色的白金轉蛋！快來獲得心儀的貓咪吧！
20201007	1100	20201009	1100	90900	999999	0	0	1	2	-1	0	0	0	0	0	0	0	0	0	0	0	0	0		427	150	0	0	0	0	6970	0	2500	0	500	0	30	0	對上黑敵能力大爆發！有強大效果的戰國武將們！★點圖確認詳細吧！！
20201009	1100	20201012	1100	90900	999999	0	0	1	2	-1	0	0	0	0	0	0	0	0	0	0	0	0	0		523	150	0	4	0	0	7000	0	2500	0	500	0	0	0	對發射波動敵人超好用的「波動破壞者」登場！★好康轉蛋活動中！
20201009	1100	20300101	1100	90900	999999	0	0	1	4	-1	0	0	0	0	0	0	0	0	0	0	0	0	0		-1	0	0	0	0	0	0	0	0	0	0	0	0	0		-1	0	0	0	0	0	0	0	0	0	0	0	0	0		525	0	0	0	0	0	0	0	0	0	10000	0	0	0	必出超激稀有角色的白金轉蛋！快來獲得心儀的貓咪吧！
20201012	1100	20201026	2359	90900	999999	0	0	4	1	13	0	0	0	2700	0	2300	0	1100	0	2500	1	1400	1	【期間限定】可使用"聖魔大戰巧克力"的限定轉蛋！★10月26日為止！	只要再使用活動轉蛋	次後限定角色必定出現!!
20201012	1100	20201026	1100	90900	999999	0	0	1	1	537	150	0	6616	0	0	6970	0	2500	0	500	0	30	0	惡魔VS天使！『聖魔大戰』合作轉蛋！★點圖確認詳細吧!!
20201012	1100	20201014	1100	90900	999999	0	0	1	2	-1	0	0	0	0	0	0	0	0	0	0	0	0	0		519	150	0	6616	0	0	6970	0	2500	0	500	0	30	0	新角色「角擊貓」參戰！充滿謎的噁心可愛生命體來啦！★點圖確認詳細吧!!
20201014	1100	20201016	1100	90900	999999	0	0	1	2	-1	0	0	0	0	0	0	0	0	0	0	0	0	0		435	150	0	6616	0	0	6970	0	2500	0	500	0	30	0	展現壓倒性的存在感，快點入手強力的龍皇吧!★點圖確認詳細吧!!
20201016	1100	20201102	0	90900	999999	0	0	0	4	-1	0	0	0	0	0	0	0	0	0	0	0	0	0		-1	0	0	0	0	0	0	0	0	0	0	0	0	0		-1	0	0	0	0	0	0	0	0	0	0	0	0	0		52	0	300	0	0	0	5100	0	3500	0	1400	0	0	0	限時開放★能夠獲得喵力達與XP的特別轉蛋！★11月1日為止！
20201016	1100	20201019	1100	90900	999999	0	0	1	1	521	150	0	6616	0	0	6500	0	2600	0	900	0	0	0	超激稀有角色齊聚一堂!!★超激稀有出現率大增的「特級貓咪祭」進行中!!
20201016	1100	20201026	1100	90900	999999	0	0	1	2	-1	0	0	0	0	0	0	0	0	0	0	0	0	0		537	150	0	6616	0	0	6970	0	2500	0	500	0	30	0	惡魔VS天使！『聖魔大戰』合作轉蛋！★點圖確認詳細吧!!
20201019	1100	20201021	1100	90900	999999	0	0	1	2	-1	0	0	0	0	0	0	0	0	0	0	0	0	0		507	150	0	6616	0	0	6970	0	2500	0	500	0	30	0	異世界召喚來的快樂美少女們！隱藏版美少女也參戰！★點圖確認詳細吧！！
20201019	1100	20201026	1100	90900	999999	0	0	1	1	537	150	0	6616	0	0	6970	0	2500	0	500	0	30	0	惡魔VS天使！『聖魔大戰』合作轉蛋！★點圖確認詳細吧!!
20201021	1100	20201023	1100	90900	999999	0	0	1	2	-1	0	0	0	0	0	0	0	0	0	0	0	0	0		446	150	0	6616	0	0	6970	0	2500	0	500	0	30	0	貓咪軍團珍藏的超級武器！神秘角色新登場！？★點圖可以看詳細內容喔！
20201023	1100	20201026	1100	90900	999999	0	0	1	2	-1	0	0	0	0	0	0	0	0	0	0	0	0	0		488	150	0	6616	0	0	6970	0	2500	0	500	1	30	0	握有正義與黑暗之力，貓咪軍團的救世主來了！★點圖確認詳細吧!!
20201023	1100	20201026	1100	90900	999999	0	0	1	1	537	150	0	6616	0	0	6970	0	2500	0	500	1	30	0	【即將結束】惡魔VS天使！『聖魔大戰』合作轉蛋！★11連轉超激確定活動中!!
[end]
