[start]
20180109	1100	20300101	1100	50700	999999	0	0	0	1	0	0	0	0	10000	0	0	0	0	0	0	0	0	0	
20160101	0	20300101	0	50700	999999	0	0	1	1	0	150	0	0	0	0	7500	0	2000	0	500	0	0	0	只有從這個轉蛋才能拿到的限定角色等著你喔！
20170101	0	20300101	0	80200	999999	0	0	2	3	0	30	0	0	0	0	7500	0	2000	0	500	0	0	0		0	30	0	0	0	0	7500	0	2000	0	500	0	0	0		0	30	0	0	0	0	7500	0	2000	0	500	0	0	0	
20170101	0	20300101	0	80200	999999	0	0	3	3	0	75	0	0	0	0	7500	0	2000	0	500	0	0	0		0	75	0	0	0	0	7500	0	2000	0	500	0	0	0		0	75	0	0	0	0	7500	0	2000	0	500	0	0	0	
20181013	1100	20300101	1100	70400	999999	0	0	1	4	-1	150	0	0	0	0	7500	0	2000	0	500	0	0	0		-1	150	0	0	0	0	7500	0	2000	0	500	0	0	0		-1	150	0	0	0	0	7500	0	2000	0	500	0	0	0		320	0	0	0	0	0	0	0	0	0	10000	0	0	0	必出超激稀有角色的白金轉蛋！快來獲得心儀的貓咪吧！
20191012	1100	20300101	1100	80900	999999	0	0	1	4	-1	150	0	0	0	0	7500	0	2000	0	500	0	0	0		-1	150	0	0	0	0	7500	0	2000	0	500	0	0	0		-1	150	0	0	0	0	7500	0	2000	0	500	0	0	0		401	0	0	0	0	0	0	0	0	0	10000	0	0	0	必出超激稀有角色的白金轉蛋！快來獲得心儀的貓咪吧！
20191029	1100	20300101	1100	80900	999999	0	0	1	4	-1	0	0	0	0	0	0	0	0	0	0	0	0	0		-1	0	0	0	0	0	0	0	0	0	0	0	0	0		-1	0	0	0	0	0	0	0	0	0	0	0	0	0		407	0	0	0	0	0	0	0	0	0	10000	0	0	0	必出超激稀有角色的白金轉蛋！快來獲得心儀的貓咪吧！
20191129	1100	20300101	1100	90000	999999	0	0	1	4	-1	0	0	0	0	0	0	0	0	0	0	0	0	0		-1	0	0	0	0	0	0	0	0	0	0	0	0	0		-1	0	0	0	0	0	0	0	0	0	0	0	0	0		413	0	0	0	0	0	0	0	0	0	10000	0	0	0	必出超激稀有角色的白金轉蛋！快來獲得心儀的貓咪吧！
20191216	1100	20200102	0	90000	999999	0	0	0	4	-1	0	0	0	0	0	0	0	0	0	0	0	0	0		-1	0	0	0	0	0	0	0	0	0	0	0	0	0		-1	0	0	0	0	0	0	0	0	0	0	0	0	0		35	0	300	0	0	0	5100	0	3500	0	1400	0	0	0	限時開放★能夠獲得喵力達與XP的特別轉蛋！★1月1日為止！
20191220	1100	20191226	1100	90100	999999	0	0	1	2	-1	0	0	0	0	0	0	0	0	0	0	0	0	0		472	150	0	0	0	0	7000	0	2500	0	500	1	0	0	冬季限定！快來獲得可愛的聖誕節貓咪吧！★11連轉超激確定活動中！
20191223	1100	20191226	1100	90100	999999	0	0	1	1	424	150	0	0	0	0	6970	0	2500	0	500	1	30	0	拉斯沃斯參戰！世界第一即戰力的貓咪們！★點圖可以看詳細內容喔！
20191223	1100	20300101	1100	90100	999999	0	0	1	4	-1	0	0	0	0	0	0	0	0	0	0	0	0	0		-1	0	0	0	0	0	0	0	0	0	0	0	0	0		-1	0	0	0	0	0	0	0	0	0	0	0	0	0		471	0	0	0	0	0	0	0	0	0	10000	0	0	0	必出超激稀有角色的白金轉蛋！快來獲得心儀的貓咪吧！
20191226	1100	20200101	0	90100	999999	0	0	0	2	-1	0	0	0	0	0	0	0	0	0	0	0	0	0		3	0	300	0	400	0	2000	0	7000	0	600	0	0	0	限時開放★有機會入手貓薄荷的活動限定特別轉蛋！
20191226	1100	20200110	0	90100	999999	0	0	0	3	-1	0	0	0	0	0	0	0	0	0	0	0	0	0		-1	0	0	0	0	0	0	0	0	0	0	0	0	0		39	0	0	0	0	0	7400	0	2100	0	500	0	0	0	限時開放！收集小小貓咪的好機會！★開放到2020年1月9日！
20191226	1100	20200101	0	90100	999999	0	0	1	1	473	150	0	3832	0	0	6970	0	2500	0	500	1	30	0	特製歲末年終轉蛋來了！還有限時限定角色喔！★11連轉超激確定活動中！
20191226	1100	20191228	1100	90100	999999	0	0	1	2	-1	0	0	0	0	0	0	0	0	0	0	0	0	0		421	150	0	3832	0	0	6970	0	2500	0	500	1	30	0	噁心又可愛的神秘生物！神秘角色新登場！？★點圖可以看詳細內容喔！
20191228	1100	20191230	1100	90100	999999	0	0	1	2	-1	0	0	0	0	0	0	0	0	0	0	0	0	0		454	150	0	3832	0	0	7000	0	2500	0	500	1	0	0	從異世界被召喚來的怪物美少女★點圖可以看詳細內容喔！
20191230	1100	20200101	0	90100	999999	0	0	1	2	-1	0	0	0	0	0	0	0	0	0	0	0	0	0		445	150	0	3832	0	0	6970	0	2500	0	500	1	30	0	貓咪軍團珍藏的超級武器！神秘角色新登場！？★點圖可以看詳細內容喔！
20200101	0	20200109	1100	90100	999999	0	0	0	2	-1	0	0	0	0	0	0	0	0	0	0	0	0	0		5	0	0	2	500	0	7000	0	2000	0	500	0	0	0	限時開放★高機率獲得各種貓眼石的活動限定特別轉蛋！
20200101	0	20200104	1100	90100	999999	0	0	1	1	469	150	0	3832	0	0	6500	0	2600	0	900	0	0	0	超強的限定角色「幼傑達太貓」登場！★超激出現率大幅上升！
20200104	1100	20200109	1100	90100	999999	0	0	1	1	474	150	0	3832	0	0	6970	0	2500	0	500	1	30	0	特製歡慶新年轉蛋來了！還有限時限定角色喔！★11連轉超激確定活動中！
20200104	1100	20200106	1100	90100	999999	0	0	1	2	-1	0	0	0	0	0	0	0	0	0	0	0	0	0		430	150	0	3832	0	0	6970	0	2500	0	500	1	30	0	英雄令媛蜜斯參戰！充滿力量可愛的電腦少女們！★點圖確認詳細吧！！
20200106	1100	20200109	1100	90100	999999	0	0	1	2	-1	0	0	0	0	0	0	0	0	0	0	0	0	0		448	150	0	3832	0	0	6970	0	2500	0	500	1	30	0	來自宇宙盡頭的各種精靈們！還有新神秘角色！？★點圖可以看詳細內容喔！
[end]
