[start]
20180109	1100	20300101	1100	50700	999999	0	0	0	1	0	0	0	0	10000	0	0	0	0	0	0	0	0	0	
20160101	0	20300101	0	50700	999999	0	0	1	1	0	150	0	0	0	0	7500	0	2000	0	500	0	0	0	只有從這個轉蛋才能拿到的限定角色等著你喔！
20170101	0	20300101	0	80200	999999	0	0	2	3	0	30	0	0	0	0	7500	0	2000	0	500	0	0	0		0	30	0	0	0	0	7500	0	2000	0	500	0	0	0		0	30	0	0	0	0	7500	0	2000	0	500	0	0	0	
20170101	0	20300101	0	80200	999999	0	0	3	3	0	75	0	0	0	0	7500	0	2000	0	500	0	0	0		0	75	0	0	0	0	7500	0	2000	0	500	0	0	0		0	75	0	0	0	0	7500	0	2000	0	500	0	0	0	
20191223	1100	20300101	1100	90100	999999	0	0	1	4	-1	0	0	0	0	0	0	0	0	0	0	0	0	0		-1	0	0	0	0	0	0	0	0	0	0	0	0	0		-1	0	0	0	0	0	0	0	0	0	0	0	0	0		471	0	0	0	0	0	0	0	0	0	10000	0	0	0	必出超激稀有角色的白金轉蛋！快來獲得心儀的貓咪吧！
20200111	1100	20300101	1100	90100	999999	0	0	1	4	-1	0	0	0	0	0	0	0	0	0	0	0	0	0		-1	0	0	0	0	0	0	0	0	0	0	0	0	0		-1	0	0	0	0	0	0	0	0	0	0	0	0	0		480	0	0	0	0	0	0	0	0	0	10000	0	0	0	必出超激稀有角色的白金轉蛋！快來獲得心儀的貓咪吧！
20200116	1100	20200202	0	90100	999999	0	0	0	4	-1	0	0	0	0	0	0	0	0	0	0	0	0	0		-1	0	0	0	0	0	0	0	0	0	0	0	0	0		-1	0	0	0	0	0	0	0	0	0	0	0	0	0		37	0	300	0	0	0	5100	0	3500	0	1400	0	0	0	限時開放★能夠獲得喵力達與XP的特別轉蛋！★2月1日為止！
20200120	1100	20200123	1100	90100	999999	0	0	1	1	439	150	0	0	0	0	6970	0	2500	0	500	0	30	0	正義的暗黑英雄，貓咪軍團的異星戰士剋星！★點圖可以看詳細內容喔！
20200123	1100	20200129	1100	90100	999999	0	0	1	1	481	150	0	0	0	0	6500	0	2600	0	900	0	0	0	2種「小小瓦爾基麗貓」特別参戦！★超激出現率大幅上升！
20200129	1100	20200205	1100	90100	999999	0	0	0	2	-1	0	0	0	0	0	0	0	0	0	0	0	0	0		3	0	300	0	400	0	2000	0	7000	0	600	0	0	0	限時開放★有機會入手貓薄荷的活動限定特別轉蛋！
20200204	1100	20200219	0	90200	999999	0	0	0	3	-1	0	0	0	0	0	0	0	0	0	0	0	0	0		-1	0	0	0	0	0	0	0	0	0	0	0	0	0		40	0	0	0	0	0	7400	0	2100	0	500	0	0	0	限時開放！收集小小貓咪的好機會！★開放到2020年2月18日！
20200129	1100	20200131	1100	90200	999999	0	0	1	1	427	150	0	0	0	0	6970	0	2500	0	500	0	30	0	成田甲斐參戰！對上黑敵有強大效果最靠得住的戰國武將們！★點圖確認詳細吧！！
20200131	1100	20200202	1100	90200	999999	0	0	1	1	424	150	0	0	0	0	6970	0	2500	0	500	0	30	0	拉斯沃斯參戰！世界第一即戰力的貓咪們！★點圖可以看詳細內容喔！
20200202	1100	20200204	1100	90200	999999	0	0	1	1	421	150	0	0	0	0	6970	0	2500	0	500	0	30	0	噁心又可愛的神秘生物！神秘角色新登場！？★點圖可以看詳細內容喔！
20200204	1100	20200207	1100	90200	999999	0	0	1	1	454	150	0	3848	0	0	7000	0	2500	0	500	0	0	0	從異世界被召喚來的怪物美少女★點圖可以看詳細內容喔！
20200205	1100	20200212	1100	90200	999999	0	0	0	2	-1	0	0	0	0	0	0	0	0	0	0	0	0	0		5	0	0	2	500	0	7000	0	2000	0	500	0	0	0	限時開放★高機率獲得各種貓眼石的活動限定特別轉蛋！
20200207	1100	20200210	1100	90200	999999	0	0	1	1	451	150	0	3852	0	0	7000	0	2500	0	500	0	0	0	紅色破壞者轉蛋限定角色「貓飯拳派派」登場！★好康轉蛋活動中！
20200207	1100	20200210	1100	90200	999999	0	0	1	2	-1	0	0	0	0	0	0	0	0	0	0	0	0	0		452	150	0	3852	0	0	7000	0	2500	0	500	0	0	0	專打飄浮敵人！以「閃電機兵飛雷」爲首的飄浮破壞者轉蛋！★好康轉蛋活動中！
20200207	1100	20200210	1100	90200	999999	0	0	1	3	-1	0	0	0	0	0	0	0	0	0	0	0	0	0		-1	0	0	0	0	0	0	0	0	0	0	0	0	0		453	150	0	3852	0	0	7000	0	2500	0	500	0	0	0	削鐵如泥！有效對抗鋼鐵敵人的角色大集合！★好康轉蛋活動中！
[end]
