[start]
20180109	1100	20300101	1100	50700	999999	0	0	0	1	0	0	0	0	10000	0	0	0	0	0	0	0	0	0	
20170101	0	20300101	0	80200	999999	0	0	2	3	0	30	0	0	0	0	7500	0	2000	0	500	0	0	0		0	30	0	0	0	0	7500	0	2000	0	500	0	0	0		0	30	0	0	0	0	7500	0	2000	0	500	0	0	0	
20170101	0	20300101	0	80200	999999	0	0	3	3	0	75	0	0	0	0	7500	0	2000	0	500	0	0	0		0	75	0	0	0	0	7500	0	2000	0	500	0	0	0		0	75	0	0	0	0	7500	0	2000	0	500	0	0	0	
20201009	1100	20300101	1100	90900	999999	0	0	1	4	-1	0	0	0	0	0	0	0	0	0	0	0	0	0		-1	0	0	0	0	0	0	0	0	0	0	0	0	0		-1	0	0	0	0	0	0	0	0	0	0	0	0	0		525	0	0	0	0	0	0	0	0	0	10000	0	0	0	必出超激稀有角色的白金轉蛋！快來獲得心儀的貓咪吧！
20201113	1100	20300101	1100	91000	999999	0	0	1	4	-1	0	0	0	0	0	0	0	0	0	0	0	0	0		-1	0	0	0	0	0	0	0	0	0	0	0	0	0		-1	0	0	0	0	0	0	0	0	0	0	0	0	0		543	0	0	0	0	0	0	0	0	0	10000	0	0	0	必出超激稀有角色的白金轉蛋！快來獲得心儀的貓咪吧！
20201225	1100	20210108	000	100100	999999	0	0	0	3	-1	0	0	0	0	0	0	0	0	0	0	0	0	0		-1	0	0	0	0	0	0	0	0	0	0	0	0	0		57	0	0	0	0	0	7400	0	2100	0	500	0	0	0	限時開放！收集小小貓咪的好機會！★開放到2021年1月7日！
20210101	000	20210107	1100	100100	999999	0	0	0	2	-1	0	0	0	0	0	0	0	0	0	0	0	0	0		3	0	300	0	400	0	2000	0	7000	0	600	0	0	0	限時開放★有機會入手貓薄荷的活動限定特別轉蛋！
20210101	000	20210104	1100	100100	999999	0	0	1	1	541	150	0	4136	0	0	6500	0	2600	0	900	0	0	0	超激稀有角色齊聚一堂!!超激角色出現率大增的「超級貓咪祭」進行中!!
20210104	1100	20210118	1100	100100	999999	0	0	1	1	564	150	0	4136	0	0	7000	0	2500	0	500	0	0	0	【期間限定】新角色追加！『初音未來』合作轉蛋！★點圖確認詳細吧!!
20210104	1100	20210107	1100	100100	999999	0	0	1	2	-1	0	0	0	0	0	0	0	0	0	0	0	0	0		548	150	0	4136	0	0	7000	0	2500	0	500	0	0	0	人氣角色大集合！年初特別轉蛋來了！★點圖確認詳細吧!!
20210104	1100	20210107	1100	100100	999999	0	0	1	3	-1	0	0	0	0	0	0	0	0	0	0	0	0	0		-1	0	0	0	0	0	0	0	0	0	0	0	0	0		430	150	0	4136	0	0	6970	0	2500	0	500	0	30	0	打倒阻礙的敵人！戰鬥力十足又可愛的電腦少女們！★點圖可看詳細內容！
20210107	1100	20210109	1100	100100	999999	0	0	1	2	-1	0	0	0	0	0	0	0	0	0	0	0	0	0		425	150	0	0	0	0	6970	0	2500	0	500	0	30	0	豐富多樣性的世界第一即戰力貓咪們！★點圖確認詳細吧!!
20210109	1100	20210111	1100	100100	999999	0	0	1	2	-1	0	0	0	0	0	0	0	0	0	0	0	0	0		428	150	0	0	0	0	6970	0	2500	0	500	0	30	0	對上黑敵能力大爆發！有強大效果的戰國武將們！★點圖確認詳細吧！！
20210111	1100	20210113	1100	100100	999999	0	0	1	2	-1	0	0	0	0	0	0	0	0	0	0	0	0	0		498	150	0	0	0	0	6970	0	2500	0	500	0	30	0	貓咪世界的偉大神們，都齊聚在此啦！★點圖確認詳細吧!!
20210113	1100	20210115	1100	100100	999999	0	0	1	2	-1	0	0	0	0	0	0	0	0	0	0	0	0	0		476	150	0	0	0	0	6970	0	2500	0	500	0	30	0	貓咪世界最大級的驚人進化樣貌之古代勇者們！★點圖確認詳細吧!!
20210115	1100	20210118	1100	100100	999999	0	0	1	1	564	150	0	0	0	0	7000	0	2500	0	500	1	0	0	【期間限定】新角色追加！『初音未來』合作轉蛋！★點圖確認詳細吧!!
20210115	1100	20210118	1100	100100	999999	0	0	1	2	-1	0	0	0	0	0	0	0	0	0	0	0	0	0		434	150	0	0	0	0	6970	0	2500	0	500	1	30	0	展現壓倒性的存在感，快點入手強力的龍皇吧!★點圖確認詳細吧!!
20210116	1100	20210202	0	100100	999999	0	0	0	4	-1	0	0	0	0	0	0	0	0	0	0	0	0	0		-1	0	0	0	0	0	0	0	0	0	0	0	0	0		-1	0	0	0	0	0	0	0	0	0	0	0	0	0		56	0	300	0	0	0	5100	0	3500	0	1400	0	0	0	限時開放★能夠獲得喵力達與XP的特別轉蛋！★2月1日為止！
20210114	1100	20210119	000	100100	999999	0	0	0	3	-1	0	0	0	0	0	0	0	0	0	0	0	0	0		-1	0	0	0	0	0	0	0	0	0	0	0	0	0		57	0	0	0	0	0	7400	0	2100	0	500	0	0	0	限時開放！收集小小貓咪的好機會！★開放到2021年1月18日！
[end]
