[start]
20180109	1100	20300101	0	60700	999999	0	0	0	1	0	0	0	0	10000	0	0	0	0	0	0	0	0	0	
20160101	0	20300101	0	50700	999999	0	0	1	1	0	150	0	0	0	0	7500	0	2000	0	500	0	0	0	ここでしか手に入らないキャラクターが必ず出現！しかもレアキャラ以上確定!!
20180101	0	20300101	0	50700	999999	0	0	2	2	33	30	0	0	0	0	7500	0	2000	0	500	0	0	0		23	30	0	0	0	0	7500	0	2000	0	500	0	0	0	
20180101	0	20300101	0	50700	999999	0	0	3	2	33	75	0	0	0	0	7500	0	2000	0	500	0	0	0		23	75	0	0	0	0	7500	0	2000	0	500	0	0	0	
20180915	1100	20300101	0	70400	999999	0	0	1	4	-1	150	0	0	0	0	7500	0	2000	0	500	0	0	0		-1	150	0	0	0	0	7500	0	2000	0	500	0	0	0		-1	150	0	0	0	0	7500	0	2000	0	500	0	0	0		320	0	0	0	0	0	0	0	0	0	10000	0	0	0	超激レアのキャラクターが必ず１体手に入る「プラチナガチャ」！
20190204	1100	20190218	2359	80200	999999	0	0	0	3	-1	150	0	0	0	0	7500	0	2000	0	500	0	0	0		-1	150	0	0	0	0	7500	0	2000	0	500	0	0	0		22	0	0	0	0	0	7400	0	2100	0	500	0	0	0	【期間限定】ちびネコ達が手に入る特別仕様のイベントガチャ！★2月18日まで！
20190216	1100	20190301	2359	80200	999999	0	0	0	4	-1	150	0	0	0	0	7500	0	2000	0	500	0	0	0		-1	150	0	0	0	0	7500	0	2000	0	500	0	0	0		-1	150	0	0	0	0	7500	0	2000	0	500	0	0	0		19	0	300	0	0	0	5100	0	3500	0	1400	0	0	0	【期間限定】ネコビタンとXPが手に入る特別仕様ガチャ！★3月1日まで！
20190213	1100	20190215	1100	80200	999999	0	0	1	1	336	150	0	3560	0	0	6970	0	2500	0	500	0	30	0	圧倒的な存在感を放つドラゴン達！シークレット新参戦！？★詳細はバナーをタップ!!
20190215	1100	20190218	1100	80200	999999	0	0	1	1	361	150	0	3560	0	0	6500	0	2600	0	900	0	0	0	限定キャラ「影傑ダークダルターニャ」も参戦！★超激レア出現率が今だけ超アップ!!
20190218	1100	20190304	1100	80201	999999	0	0	1	1	368	150	0	0	0	0	7000	0	2500	0	500	0	0	0	劇場版「Fate/stay night [Heaven's Feel]」コラボガチャ！★詳細はバナーをタップ!!
20190218	1100	20190220	1100	80201	999999	0	0	1	2	-1	150	0	0	0	0	7500	0	2000	0	500	0	0	0		351	150	0	0	0	0	7000	0	2500	0	500	0	0	0	宇宙の果てからやって来た、個性的で楽しい精霊達！★詳細はバナーをタップ!!
20190220	1100	20190222	1100	80201	999999	0	0	1	2	-1	150	0	0	0	0	7500	0	2000	0	500	0	0	0		348	150	0	0	0	0	7000	0	2500	0	500	0	0	0	超ド級！ゾンビを蹴散らすにゃんこ軍団の超兵器達！★詳細はバナーをタップ!!
20190222	1100	20190224	1100	80201	999999	0	0	1	2	-1	150	0	0	0	0	7500	0	2000	0	500	0	0	0		369	150	0	0	0	0	6970	0	2500	0	500	0	30	0	世界一即戦力になるにゃんこ達！シークレット新参戦！？★詳細はバナーをタップ!!
20190224	1100	20190227	1100	80201	999999	0	0	1	2	-1	150	0	0	0	0	7500	0	2000	0	500	0	0	0		360	150	0	0	0	0	6500	0	2600	0	900	0	0	0	強力な限定キャラ「幼傑ダルターニャ」も参戦！★超激レア出現率が今だけ超アップ!!
[end]
