[start]
20180109	1100	20300101	0	60700	999999	0	0	0	1	0	0	0	0	10000	0	0	0	0	0	0	0	0	0	
20160101	0	20300101	0	50700	999999	0	0	1	1	0	150	0	0	0	0	7500	0	2000	0	500	0	0	0	ここでしか手に入らないキャラクターが必ず出現！しかもレアキャラ以上確定!!
20180101	0	20300101	0	80200	999999	0	0	2	3	33	30	0	0	0	0	7500	0	2000	0	500	0	0	0		23	30	0	0	0	0	7500	0	2000	0	500	0	0	0		0	30	0	0	0	0	7500	0	2000	0	500	0	0	0	
20180101	0	20300101	0	80200	999999	0	0	3	3	33	75	0	0	0	0	7500	0	2000	0	500	0	0	0		23	75	0	0	0	0	7500	0	2000	0	500	0	0	0		0	75	0	0	0	0	7500	0	2000	0	500	0	0	0	
20200710	1100	20300101	000	90700	999999	0	0	1	4	-1	0	0	0	0	0	0	0	0	0	0	0	0	0		-1	0	0	0	0	0	0	0	0	0	0	0	0	0		-1	0	0	0	0	0	0	0	0	0	0	0	0	0		525	0	0	0	0	0	0	0	0	0	10000	0	0	0	超激レアのキャラクターが必ず１体手に入る「プラチナガチャ」！
20201009	1100	20300101	000	91000	999999	0	0	1	4	-1	0	0	0	0	0	0	0	0	0	0	0	0	0		-1	0	0	0	0	0	0	0	0	0	0	0	0	0		-1	0	0	0	0	0	0	0	0	0	0	0	0	0		543	0	0	0	0	0	0	0	0	0	10000	0	0	0	超激レアのキャラクターが必ず１体手に入る「プラチナガチャ」！
20201129	1100	20300101	0	100000	999999	0	0	1	5	-1	150	0	0	0	0	7500	0	2000	0	500	0	0	0		-1	150	0	0	0	0	7500	0	2000	0	500	0	0	0		-1	150	0	0	0	0	7500	0	2000	0	500	0	0	0		-1	150	0	0	0	0	7500	0	2000	0	500	0	0	0		551	0	0	0	0	0	0	0	0	0	9500	0	500	0	超激レア以上のキャラクターが必ず１体手に入る「レジェンドガチャ」！
20201216	1100	20201231	2359	100000	999999	0	0	0	4	-1	0	0	0	0	0	0	0	0	0	0	0	0	0		-1	0	0	0	0	0	0	0	0	0	0	0	0	0		-1	0	0	0	0	0	0	0	0	0	0	0	0	0		55	0	300	0	0	0	5100	0	3500	0	1400	0	0	0	【期間限定】ネコビタンとXPが手に入る特別仕様ガチャ！
20201211	1100	20201226	1100	100100	999999	0	0	0	2	-1	0	0	0	0	0	0	0	0	0	0	0	0	0		3	0	300	0	400	0	2000	0	7000	0	600	0	0	0	高確率でマタタビが手に入るイベント限定特別ガチャ！
20201211	1100	20201226	1100	100100	999999	0	0	1	1	563	150	0	0	0	0	7000	0	2500	0	500	0	0	0	【期間限定】新キャラ追加！『初音ミク』コラボガチャ！★詳細はバナーをタップ!!
20201214	1100	20201226	1100	100100	999999	0	0	1	2	-1	0	0	0	0	0	0	0	0	0	0	0	0	0		565	150	0	0	0	0	7000	0	2500	0	500	0	0	0	新キャラ追加！クリスマス限定キャラを手に入れよう！★詳細はバナーをタップ!!
20201222	1100	20201226	1100	100100	999999	0	0	1	1	563	150	0	0	0	0	7000	0	2500	0	500	1	0	0	【終了間近】新キャラ追加！『初音ミク』コラボガチャ！★11連で超激レア確定!!
20201222	1100	20201226	1100	100100	999999	0	0	1	2	-1	0	0	0	0	0	0	0	0	0	0	0	0	0		565	150	0	0	0	0	7000	0	2500	0	500	1	0	0	新キャラ追加！クリスマス限定キャラを手に入れよう！★詳細はバナーをタップ!!
20201222	1100	20201224	1100	100100	999999	0	0	1	3	-1	0	0	0	0	0	0	0	0	0	0	0	0	0		-1	0	0	0	0	0	0	0	0	0	0	0	0	0		475	150	0	0	0	0	6970	0	2500	0	500	1	30	0	にゃんこワールド最大級の仰天進化を遂げる古代の勇者達！★詳細はバナーをタップ!!
20201224	1100	20201226	1100	100100	999999	0	0	1	3	-1	0	0	0	0	0	0	0	0	0	0	0	0	0		-1	0	0	0	0	0	0	0	0	0	0	0	0	0		433	150	0	0	0	0	6970	0	2500	0	500	1	30	0	圧倒的な存在感を放つ、強力なドラゴン達を手に入れよう！★詳細はバナーをタップ!!
20201226	1100	20210112	2359	100100	999999	0	0	0	3	-1	0	0	0	0	0	0	0	0	0	0	0	0	0		-1	0	0	0	0	0	0	0	0	0	0	0	0	0		57	0	0	0	0	0	7400	0	2100	0	500	0	0	0	【期間限定】ちびネコ達が手に入る特別仕様のイベントガチャ！
20201226	1100	20210101	000	100100	999999	0	0	0	2	-1	0	0	0	0	0	0	0	0	0	0	0	0	0		5	0	0	2	500	0	7000	0	2000	0	500	0	0	0	高確率でキャッツアイが手に入るイベント限定特別ガチャ！
20210101	000	20210106	1100	100100	999999	0	0	0	2	-1	0	0	0	0	0	0	0	0	0	0	0	0	0		3	0	300	0	400	0	2000	0	7000	0	600	0	0	0	高確率でマタタビが手に入るイベント限定特別ガチャ！
20210106	1100	20210112	1100	100100	999999	0	0	0	2	-1	0	0	0	0	0	0	0	0	0	0	0	0	0		5	0	0	2	500	0	7000	0	2000	0	500	0	0	0	高確率でキャッツアイが手に入るイベント限定特別ガチャ！
20201226	1100	20210101	0	100100	999999	0	0	1	1	562	150	0	4136	0	0	6770	0	2500	0	700	0	30	0	季節のコスプレキャラが一堂に集結!!★超激出現率アップの「超国王祭」新登場!!
20201226	1100	20201228	1100	100100	999999	0	0	1	2	-1	0	0	0	0	0	0	0	0	0	0	0	0	0		445	150	0	4136	0	0	6970	0	2500	0	500	0	30	0	にゃんこ軍団秘蔵の超兵器達！シークレット新参戦！？★詳細はバナーをタップ!!
20201226	1100	20300101	000	100100	999999	0	0	1	5	-1	0	0	0	0	0	0	0	0	0	0	0	0	0		-1	0	0	0	0	0	0	0	0	0	0	0	0	0		-1	0	0	0	0	0	0	0	0	0	0	0	0	0		-1	0	0	0	0	0	0	0	0	0	0	0	0	0		557	0	0	0	0	0	0	0	0	0	9500	0	500	0	超激レア以上のキャラクターが必ず１体手に入る「レジェンドガチャ」！
20201228	1100	20201230	1100	100100	999999	0	0	1	2	-1	0	0	0	0	0	0	0	0	0	0	0	0	0		430	150	0	4136	0	0	6970	0	2500	0	500	0	30	0	邪魔する敵をやっつける！パワフルでキュートな電脳少女達！★詳細はバナーをタップ!!
20201230	1100	20210101	000	100100	999999	0	0	1	2	-1	0	0	0	0	0	0	0	0	0	0	0	0	0		497	150	0	4136	0	0	6970	0	2500	0	500	0	30	0	にゃんこワールドの偉大なる神々、ここに集結！★詳細はバナーをタップ!!
20210101	000	20210104	1100	100100	999999	0	0	1	1	559	150	0	4136	0	0	6500	0	2500	0	1000	0	0	0	新キャラ「幼獣ガル」に加え、ちびネコヴァルキリーも登場！★超激出現率が最大アップ!
20210101	000	20300101	000	100100	999999	0	0	1	4	-1	0	0	0	0	0	0	0	0	0	0	0	0	0		-1	0	0	0	0	0	0	0	0	0	0	0	0	0		-1	0	0	0	0	0	0	0	0	0	0	0	0	0		556	0	0	0	0	0	0	0	0	0	10000	0	0	0	超激レアのキャラクターが必ず１体手に入る「プラチナガチャ」！
20210101	000	20300101	000	100100	999999	0	0	1	5	-1	0	0	0	0	0	0	0	0	0	0	0	0	0		-1	0	0	0	0	0	0	0	0	0	0	0	0	0		-1	0	0	0	0	0	0	0	0	0	0	0	0	0		-1	0	0	0	0	0	0	0	0	0	0	0	0	0		558	0	0	0	0	0	0	0	0	0	9500	0	500	0	超激レア以上のキャラクターが必ず１体手に入る「レジェンドガチャ」！
20210104	1100	20210112	1100	100100	999999	0	0	1	1	560	150	0	4136	0	0	6970	0	2500	0	500	0	30	0	期間限定キャラも登場する、特別仕様の新年ガチャ！★詳細はバナーをタップ!!
20210104	1100	20210106	1100	100100	999999	0	0	1	2	-1	0	0	0	0	0	0	0	0	0	0	0	0	0		538	150	0	4136	0	0	6970	0	2500	0	500	0	30	0	新キャラ「石の精霊ゴロー」参戦！個性的で愉快な精霊達！★詳細はバナーをタップ!!
20210106	1100	20210108	1100	100100	999999	0	0	1	2	-1	0	0	0	0	0	0	0	0	0	0	0	0	0		517	150	0	4136	0	0	6970	0	2500	0	500	0	30	0	新キャラ「オイルガ」参戦！謎だらけのキモかわ生命体！★詳細はバナーをタップ!!
[end]
